{
	"info": {
		"_postman_id": "70337510-92cd-4820-a34a-aad4487000ca",
		"name": "DOKTER",
		"schema": "https://schema.getpostman.com/json/collection/v2.1.0/collection.json",
		"_exporter_id": "13196771"
	},
	"item": [
		{
			"name": "MASTER DOKTER",
			"item": [
				{
					"name": "GET API DOKTER",
					"protocolProfileBehavior": {
						"disableBodyPruning": true
					},
					"request": {
						"auth": {
							"type": "bearer",
							"bearer": [
								{
									"key": "token",
									"value": "eyJhbGciOiJIUzI1NiIsInR5cCI6IkpXVCJ9.eyJlbWFpbCI6ImFkbWluQGFkbWluLmNvbSIsImFsYW1hdCI6ImFkbWluQGFkbWluLmNvbSIsImlhdCI6MTcwMzk0NDcxMywiZXhwIjoxNzAzOTQ4MzEzfQ.lwaIDrXzAZyLhRkxYgDdINuaNvVYIY6vLyX4i7qDMec",
									"type": "string"
								}
							]
						},
						"method": "GET",
						"header": [],
						"body": {
							"mode": "urlencoded",
							"urlencoded": []
						},
						"url": {
							"raw": "{{url}}/dokter",
							"host": [
								"{{url}}"
							],
							"path": [
								"dokter"
							]
						}
					},
					"response": []
				},
				{
					"name": "POST DOKTER",
					"request": {
						"auth": {
							"type": "bearer",
							"bearer": [
								{
									"key": "token",
									"value": "eyJhbGciOiJIUzI1NiIsInR5cCI6IkpXVCJ9.eyJlbWFpbCI6ImFkbWluQGFkbWluLmNvbSIsImFsYW1hdCI6ImFkbWluQGFkbWluLmNvbSIsImlhdCI6MTcwMzk0MTcyOSwiZXhwIjoxNzAzOTQ1MzI5fQ.8-gTiB_evX5eVrJ2j517Vhi_JHpEmHVWo8LZIWyecMc",
									"type": "string"
								}
							]
						},
						"method": "POST",
						"header": [],
						"body": {
							"mode": "raw",
							"raw": "{\n    \"nama\": \"Tirta\",\n    \"alamat\": \"Jakarta\"\n}",
							"options": {
								"raw": {
									"language": "json"
								}
							}
						},
						"url": {
							"raw": "{{url}}/dokter/insert",
							"host": [
								"{{url}}"
							],
							"path": [
								"dokter",
								"insert"
							]
						}
					},
					"response": []
				},
				{
					"name": "DETAIL DOKTER",
					"protocolProfileBehavior": {
						"disableBodyPruning": true
					},
					"request": {
						"auth": {
							"type": "bearer",
							"bearer": [
								{
									"key": "token",
									"value": "eyJhbGciOiJIUzI1NiIsInR5cCI6IkpXVCJ9.eyJlbWFpbCI6ImFkbWluQGFkbWluLmNvbSIsImFsYW1hdCI6ImFkbWluQGFkbWluLmNvbSIsImlhdCI6MTcwMzk0MTcyOSwiZXhwIjoxNzAzOTQ1MzI5fQ.8-gTiB_evX5eVrJ2j517Vhi_JHpEmHVWo8LZIWyecMc",
									"type": "string"
								}
							]
						},
						"method": "GET",
						"header": [],
						"body": {
							"mode": "urlencoded",
							"urlencoded": []
						},
						"url": {
							"raw": "{{url}}/dokter/detail/1",
							"host": [
								"{{url}}"
							],
							"path": [
								"dokter",
								"detail",
								"1"
							]
						}
					},
					"response": []
				},
				{
					"name": "UPDATE DOKTER",
					"request": {
						"method": "PUT",
						"header": [],
						"body": {
							"mode": "raw",
							"raw": "{\n    \"nama\": \"Dzakwan\",\n    \"alamat\": \"Semarang\"\n}",
							"options": {
								"raw": {
									"language": "json"
								}
							}
						},
						"url": {
							"raw": "{{url}}/dokter/update/1",
							"host": [
								"{{url}}"
							],
							"path": [
								"dokter",
								"update",
								"1"
							]
						}
					},
					"response": []
				},
				{
					"name": "DELETE DOKTER",
					"request": {
						"method": "PUT",
						"header": [],
						"body": {
							"mode": "raw",
							"raw": "{\n    \"status\": 0\n}",
							"options": {
								"raw": {
									"language": "json"
								}
							}
						},
						"url": {
							"raw": "{{url}}/dokter/delete/4",
							"host": [
								"{{url}}"
							],
							"path": [
								"dokter",
								"delete",
								"4"
							]
						}
					},
					"response": []
				}
			]
		},
		{
			"name": "JADWAL DOKTER",
			"item": [
				{
					"name": "GET API JADWAL DOKTER",
					"protocolProfileBehavior": {
						"disableBodyPruning": true
					},
					"request": {
						"auth": {
							"type": "bearer",
							"bearer": [
								{
									"key": "token",
									"value": "eyJhbGciOiJIUzI1NiIsInR5cCI6IkpXVCJ9.eyJlbWFpbCI6ImFkbWluQGFkbWluLmNvbSIsImFsYW1hdCI6ImFkbWluQGFkbWluLmNvbSIsImlhdCI6MTcwMzk0MTcyOSwiZXhwIjoxNzAzOTQ1MzI5fQ.8-gTiB_evX5eVrJ2j517Vhi_JHpEmHVWo8LZIWyecMc",
									"type": "string"
								}
							]
						},
						"method": "GET",
						"header": [],
						"body": {
							"mode": "urlencoded",
							"urlencoded": [
								{
									"key": "kategori",
									"value": "Eviliya",
									"type": "text"
								},
								{
									"key": "status",
									"value": "1",
									"type": "text"
								}
							]
						},
						"url": {
							"raw": "{{url}}/jadwal_dokter",
							"host": [
								"{{url}}"
							],
							"path": [
								"jadwal_dokter"
							]
						}
					},
					"response": []
				},
				{
					"name": "GET JADWAL BY HARI",
					"protocolProfileBehavior": {
						"disableBodyPruning": true
					},
					"request": {
						"auth": {
							"type": "bearer",
							"bearer": [
								{
									"key": "token",
									"value": "eyJhbGciOiJIUzI1NiIsInR5cCI6IkpXVCJ9.eyJlbWFpbCI6ImFkbWluQGFkbWluLmNvbSIsImFsYW1hdCI6ImFkbWluQGFkbWluLmNvbSIsImlhdCI6MTcwMzk0NDcxMywiZXhwIjoxNzAzOTQ4MzEzfQ.lwaIDrXzAZyLhRkxYgDdINuaNvVYIY6vLyX4i7qDMec",
									"type": "string"
								}
							]
						},
						"method": "GET",
						"header": [],
						"body": {
							"mode": "urlencoded",
							"urlencoded": []
						},
						"url": {
							"raw": "{{url}}/jadwal_dokter/day/wednesday/2023-01-10/2023-01-18",
							"host": [
								"{{url}}"
							],
							"path": [
								"jadwal_dokter",
								"day",
								"wednesday",
								"2023-01-10",
								"2023-01-18"
							]
						}
					},
					"response": []
				},
				{
					"name": "POST JADWAL DOKTER",
					"request": {
						"method": "POST",
						"header": [],
						"body": {
							"mode": "raw",
							"raw": "{\n    \"doctor_id\": 2,\n    \"day\": \"tuesday\",\n    \"time_start\": \"08:00\",\n    \"time_finish\": \"12:00\",\n    \"quota\": 9,\n    \"status\": 1,\n    \"date\": \"2023-01-24\"\n}",
							"options": {
								"raw": {
									"language": "json"
								}
							}
						},
						"url": {
							"raw": "{{url}}/jadwal_dokter/insert",
							"host": [
								"{{url}}"
							],
							"path": [
								"jadwal_dokter",
								"insert"
							]
						}
					},
					"response": []
				}
			]
		},
		{
			"name": "LOGIN JWT",
			"protocolProfileBehavior": {
				"disableBodyPruning": true
			},
			"request": {
				"method": "GET",
				"header": [],
				"body": {
					"mode": "raw",
					"raw": "{\r\n    \"email\": \"admin@admin.com\",\r\n    \"password\": \"asd\"\r\n}",
					"options": {
						"raw": {
							"language": "json"
						}
					}
				},
				"url": {
					"raw": "{{url}}/login",
					"host": [
						"{{url}}"
					],
					"path": [
						"login"
					]
				}
			},
			"response": []
		}
	]
}